\relax 
\providecommand\hyper@newdestlabel[2]{}
\providecommand\HyperFirstAtBeginDocument{\AtBeginDocument}
\HyperFirstAtBeginDocument{\ifx\hyper@anchor\@undefined
\global\let\oldcontentsline\contentsline
\gdef\contentsline#1#2#3#4{\oldcontentsline{#1}{#2}{#3}}
\global\let\oldnewlabel\newlabel
\gdef\newlabel#1#2{\newlabelxx{#1}#2}
\gdef\newlabelxx#1#2#3#4#5#6{\oldnewlabel{#1}{{#2}{#3}}}
\AtEndDocument{\ifx\hyper@anchor\@undefined
\let\contentsline\oldcontentsline
\let\newlabel\oldnewlabel
\fi}
\fi}
\global\let\hyper@last\relax 
\gdef\HyperFirstAtBeginDocument#1{#1}
\providecommand\HyField@AuxAddToFields[1]{}
\providecommand\HyField@AuxAddToCoFields[2]{}
\providecommand \oddpage@label [2]{}
\@writefile{nav}{\headcommand {\slideentry {0}{0}{1}{1/1}{}{0}}}
\@writefile{nav}{\headcommand {\beamer@framepages {1}{1}}}
\@input{tex/introduction.aux}
\@input{tex/research-questions.aux}
\@input{tex/parsing.aux}
\@input{tex/personal-data.aux}
\@input{tex/personal-data-eu-vs-noneu.aux}
\@input{tex/personal-data-eu-vs-eu.aux}
\@input{tex/rate-limiting.aux}
\@input{tex/limitations.aux}
\@input{tex/conclusions.aux}
\@writefile{nav}{\headcommand {\beamer@partpages {1}{45}}}
\@writefile{nav}{\headcommand {\beamer@subsectionpages {41}{45}}}
\@writefile{nav}{\headcommand {\beamer@sectionpages {41}{45}}}
\@writefile{nav}{\headcommand {\beamer@documentpages {45}}}
\@writefile{nav}{\headcommand {\gdef \inserttotalframenumber {34}}}
