\relax 
\providecommand\hyper@newdestlabel[2]{}
\providecommand\HyperFirstAtBeginDocument{\AtBeginDocument}
\HyperFirstAtBeginDocument{\ifx\hyper@anchor\@undefined
\global\let\oldcontentsline\contentsline
\gdef\contentsline#1#2#3#4{\oldcontentsline{#1}{#2}{#3}}
\global\let\oldnewlabel\newlabel
\gdef\newlabel#1#2{\newlabelxx{#1}#2}
\gdef\newlabelxx#1#2#3#4#5#6{\oldnewlabel{#1}{{#2}{#3}}}
\AtEndDocument{\ifx\hyper@anchor\@undefined
\let\contentsline\oldcontentsline
\let\newlabel\oldnewlabel
\fi}
\fi}
\global\let\hyper@last\relax 
\gdef\HyperFirstAtBeginDocument#1{#1}
\providecommand\HyField@AuxAddToFields[1]{}
\providecommand\HyField@AuxAddToCoFields[2]{}
\babel@aux{british}{}
\@writefile{toc}{\contentsline {section}{\numberline {1}Summary}{1}{section.1}\protected@file@percent }
\@writefile{toc}{\contentsline {paragraph}{Overall}{1}{section*.1}\protected@file@percent }
\@writefile{toc}{\contentsline {paragraph}{Results}{1}{section*.2}\protected@file@percent }
\@writefile{toc}{\contentsline {paragraph}{Related Work \& Future Work}{1}{section*.3}\protected@file@percent }
\@writefile{toc}{\contentsline {paragraph}{Conclusion}{1}{section*.4}\protected@file@percent }
\@writefile{toc}{\contentsline {section}{\numberline {2}Strong Points}{1}{section.2}\protected@file@percent }
\@writefile{toc}{\contentsline {section}{\numberline {3}Weak Points}{2}{section.3}\protected@file@percent }
\@writefile{toc}{\contentsline {section}{\numberline {4}Writing Style}{2}{section.4}\protected@file@percent }
\@writefile{toc}{\contentsline {section}{\numberline {5}Research Quality}{2}{section.5}\protected@file@percent }
\@writefile{toc}{\contentsline {section}{\numberline {6}Tangential Thoughts}{3}{section.6}\protected@file@percent }
