\relax 
\providecommand\hyper@newdestlabel[2]{}
\@writefile{toc}{\beamer@sectionintoc {9}{Conclusions}{41}{0}{9}}
\@writefile{nav}{\headcommand {\beamer@sectionpages {36}{40}}}
\@writefile{nav}{\headcommand {\beamer@subsectionpages {36}{40}}}
\@writefile{nav}{\headcommand {\sectionentry {9}{Conclusions}{41}{Conclusions}{0}}}
\@writefile{nav}{\headcommand {\slideentry {9}{0}{1}{41/41}{}{0}}}
\@writefile{nav}{\headcommand {\beamer@framepages {41}{41}}}
\@writefile{nav}{\headcommand {\slideentry {9}{0}{2}{42/45}{}{0}}}
\@writefile{nav}{\headcommand {\beamer@framepages {42}{45}}}
\@setckpt{tex/conclusions}{
\setcounter{page}{46}
\setcounter{equation}{0}
\setcounter{enumi}{4}
\setcounter{enumii}{0}
\setcounter{enumiii}{0}
\setcounter{enumiv}{0}
\setcounter{footnote}{0}
\setcounter{mpfootnote}{0}
\setcounter{beamerpauses}{4}
\setcounter{bookmark@seq@number}{9}
\setcounter{lecture}{0}
\setcounter{part}{0}
\setcounter{section}{9}
\setcounter{subsection}{0}
\setcounter{subsubsection}{0}
\setcounter{subsectionslide}{2}
\setcounter{framenumber}{34}
\setcounter{figure}{0}
\setcounter{table}{1}
\setcounter{parentequation}{0}
\setcounter{theorem}{0}
\setcounter{section@level}{0}
}
