\relax 
\providecommand\hyper@newdestlabel[2]{}
\@writefile{toc}{\beamer@sectionintoc {6}{RQ 4: Personal Data: Differences Within EU TLDs}{30}{0}{6}}
\@writefile{nav}{\headcommand {\beamer@sectionpages {26}{29}}}
\@writefile{nav}{\headcommand {\beamer@subsectionpages {26}{29}}}
\@writefile{nav}{\headcommand {\sectionentry {6}{RQ 4: Personal Data: Differences Within EU TLDs}{30}{RQ 4: Personal Data: Differences Within EU TLDs}{0}}}
\@writefile{nav}{\headcommand {\slideentry {6}{0}{1}{30/30}{}{0}}}
\@writefile{nav}{\headcommand {\beamer@framepages {30}{30}}}
\@writefile{nav}{\headcommand {\slideentry {6}{0}{2}{31/31}{}{0}}}
\@writefile{nav}{\headcommand {\beamer@framepages {31}{31}}}
\@writefile{nav}{\headcommand {\slideentry {6}{0}{3}{32/33}{}{0}}}
\@writefile{nav}{\headcommand {\beamer@framepages {32}{33}}}
\@setckpt{tex/personal-data-eu-vs-eu}{
\setcounter{page}{34}
\setcounter{equation}{0}
\setcounter{enumi}{4}
\setcounter{enumii}{0}
\setcounter{enumiii}{0}
\setcounter{enumiv}{0}
\setcounter{footnote}{0}
\setcounter{mpfootnote}{0}
\setcounter{beamerpauses}{2}
\setcounter{bookmark@seq@number}{6}
\setcounter{lecture}{0}
\setcounter{part}{0}
\setcounter{section}{6}
\setcounter{subsection}{0}
\setcounter{subsubsection}{0}
\setcounter{subsectionslide}{3}
\setcounter{framenumber}{28}
\setcounter{figure}{0}
\setcounter{table}{1}
\setcounter{parentequation}{0}
\setcounter{theorem}{0}
\setcounter{section@level}{0}
}
