\relax 
\providecommand\hyper@newdestlabel[2]{}
\@writefile{toc}{\beamer@sectionintoc {5}{RQ 3: Personal Data: EU and Non-EU TLDs}{26}{0}{5}}
\@writefile{nav}{\headcommand {\beamer@sectionpages {20}{25}}}
\@writefile{nav}{\headcommand {\beamer@subsectionpages {20}{25}}}
\@writefile{nav}{\headcommand {\sectionentry {5}{RQ 3: Personal Data: EU and Non-EU TLDs}{26}{RQ 3: Personal Data: EU and Non-EU TLDs}{0}}}
\@writefile{nav}{\headcommand {\slideentry {5}{0}{1}{26/26}{}{0}}}
\@writefile{nav}{\headcommand {\beamer@framepages {26}{26}}}
\@writefile{nav}{\headcommand {\slideentry {5}{0}{2}{27/27}{}{0}}}
\@writefile{nav}{\headcommand {\beamer@framepages {27}{27}}}
\newlabel{tab:personaldata}{{25}{28}{RQ 3: Personal Data: EU and Non-EU TLDs}{Doc-Start}{}}
\@writefile{snm}{\beamer@slide {tab:personaldata}{28}}
\@writefile{nav}{\headcommand {\slideentry {5}{0}{3}{28/29}{}{0}}}
\@writefile{nav}{\headcommand {\beamer@framepages {28}{29}}}
\@setckpt{tex/personal-data-eu-vs-noneu}{
\setcounter{page}{30}
\setcounter{equation}{0}
\setcounter{enumi}{4}
\setcounter{enumii}{0}
\setcounter{enumiii}{0}
\setcounter{enumiv}{0}
\setcounter{footnote}{0}
\setcounter{mpfootnote}{0}
\setcounter{beamerpauses}{2}
\setcounter{bookmark@seq@number}{5}
\setcounter{lecture}{0}
\setcounter{part}{0}
\setcounter{section}{5}
\setcounter{subsection}{0}
\setcounter{subsubsection}{0}
\setcounter{subsectionslide}{3}
\setcounter{framenumber}{25}
\setcounter{figure}{0}
\setcounter{table}{1}
\setcounter{parentequation}{0}
\setcounter{theorem}{0}
\setcounter{section@level}{0}
}
