\relax 
\providecommand\hyper@newdestlabel[2]{}
\@writefile{toc}{\beamer@sectionintoc {9}{Working with \LaTeX  }{24}{0}{9}}
\@writefile{nav}{\headcommand {\beamer@sectionpages {23}{23}}}
\@writefile{nav}{\headcommand {\beamer@subsectionpages {23}{23}}}
\@writefile{nav}{\headcommand {\sectionentry {9}{Working with \LaTeX  }{24}{Working with \LaTeX  }{0}}}
\@writefile{nav}{\headcommand {\slideentry {9}{0}{1}{24/24}{}{0}}}
\@writefile{nav}{\headcommand {\beamer@framepages {24}{24}}}
\newlabel{default}{{1}{25}{Working with \LaTeX }{Doc-Start}{}}
\@writefile{snm}{\beamer@slide {default}{25}}
\@writefile{nav}{\headcommand {\slideentry {9}{0}{2}{25/25}{}{0}}}
\@writefile{nav}{\headcommand {\beamer@framepages {25}{25}}}
\@writefile{nav}{\headcommand {\slideentry {9}{0}{3}{26/26}{}{0}}}
\@writefile{nav}{\headcommand {\beamer@framepages {26}{26}}}
\@writefile{nav}{\headcommand {\slideentry {9}{0}{4}{27/27}{}{0}}}
\@writefile{nav}{\headcommand {\beamer@framepages {27}{27}}}
\@writefile{nav}{\headcommand {\slideentry {9}{0}{5}{28/30}{}{0}}}
\@writefile{nav}{\headcommand {\beamer@framepages {28}{30}}}
\@writefile{nav}{\headcommand {\slideentry {9}{0}{6}{31/31}{}{0}}}
\@writefile{nav}{\headcommand {\beamer@framepages {31}{31}}}
\@writefile{nav}{\headcommand {\slideentry {9}{0}{7}{32/34}{}{0}}}
\@writefile{nav}{\headcommand {\beamer@framepages {32}{34}}}
\@writefile{nav}{\headcommand {\slideentry {9}{0}{8}{35/35}{}{0}}}
\@writefile{nav}{\headcommand {\beamer@framepages {35}{35}}}
\@writefile{nav}{\headcommand {\slideentry {9}{0}{9}{36/36}{}{0}}}
\@writefile{nav}{\headcommand {\beamer@framepages {36}{36}}}
\@writefile{nav}{\headcommand {\slideentry {9}{0}{10}{37/37}{}{0}}}
\@writefile{nav}{\headcommand {\beamer@framepages {37}{37}}}
\@writefile{toc}{\beamer@sectionintoc {10}{Second Section}{38}{0}{10}}
\@writefile{nav}{\headcommand {\beamer@sectionpages {24}{37}}}
\@writefile{nav}{\headcommand {\beamer@subsectionpages {24}{37}}}
\@writefile{nav}{\headcommand {\sectionentry {10}{Second Section}{38}{Second Section}{0}}}
\@writefile{nav}{\headcommand {\slideentry {10}{0}{1}{38/38}{}{0}}}
\@writefile{nav}{\headcommand {\beamer@framepages {38}{38}}}
\@writefile{nav}{\headcommand {\slideentry {10}{0}{2}{39/39}{}{0}}}
\@writefile{nav}{\headcommand {\beamer@framepages {39}{39}}}
\@writefile{toc}{\beamer@sectionintoc {11}{Third Section}{40}{0}{11}}
\@writefile{nav}{\headcommand {\beamer@sectionpages {38}{39}}}
\@writefile{nav}{\headcommand {\beamer@subsectionpages {38}{39}}}
\@writefile{nav}{\headcommand {\sectionentry {11}{Third Section}{40}{Third Section}{0}}}
\@writefile{nav}{\headcommand {\slideentry {11}{0}{1}{40/40}{}{0}}}
\@writefile{nav}{\headcommand {\beamer@framepages {40}{40}}}
\@writefile{nav}{\headcommand {\slideentry {11}{0}{2}{41/41}{}{0}}}
\@writefile{nav}{\headcommand {\beamer@framepages {41}{41}}}
\@setckpt{tex/text}{
\setcounter{page}{42}
\setcounter{equation}{0}
\setcounter{enumi}{4}
\setcounter{enumii}{0}
\setcounter{enumiii}{0}
\setcounter{enumiv}{0}
\setcounter{footnote}{0}
\setcounter{mpfootnote}{0}
\setcounter{beamerpauses}{1}
\setcounter{bookmark@seq@number}{13}
\setcounter{lecture}{0}
\setcounter{part}{0}
\setcounter{section}{11}
\setcounter{subsection}{0}
\setcounter{subsubsection}{0}
\setcounter{subsectionslide}{2}
\setcounter{framenumber}{37}
\setcounter{figure}{0}
\setcounter{table}{2}
\setcounter{parentequation}{0}
\setcounter{theorem}{0}
\setcounter{section@level}{0}
}
